Homework 4 - ST558
…
parse the response

parsed <-fromJSON(rawToChar(response$content))

article_info <-as_tibble(parsed$articles)

# Ensure the first column is a list column containing relevant details
article_info <- article_info |>
  rowwise() |>
  mutate(source = list(list(source$id,source$name)))
  
article_info

# A tibble: 100 × 8
# Rowwise: 
   source     author      title description url   urlToImage publishedAt content
   <list>     <chr>       <chr> <chr>       <chr> <chr>      <chr>       <chr>  
 1 <list [2]> Olivia Ham… Heat… NPR's Mich… http… https://n… 2024-06-19… "The E…
 2 <list [2]> Michel Mar… Extr… NPR's Mich… http… https://m… 2024-06-21… "NPR's…
 3 <list [2]> Juliana Kim Heat… As the hea… http… https://n… 2024-06-22… "A maj…
 4 <list [2]> Joe Hernan… Mill… A swelteri… http… https://n… 2024-06-16… "A swe…
 5 <list [2]> Solcyré Bu… Here… Record-hig… http… https://a… 2024-06-17… "The e…
 6 <list [2]> Rachel Tre… Heat… As New Eng… http… https://n… 2024-06-20… "The U…
 7 <list [2]> Rachel Tre… Summ… Astronomic… http… https://n… 2024-06-20… "Summe…
 8 <list [2]> Max Golembo Swel… Heat alert… http… https://i… 2024-06-20… "Heat …
 9 <list [2]> Solcyré Bu… How … The first … http… https://a… 2024-06-05… "The f…
10 <list [2]> Emily Mae … Delh… A substati… http… https://s… 2024-05-29… "A tem…
# ℹ 90 more rows
…
search1

# A tibble: 100 × 8
# Rowwise: 
   source     author      title description url   urlToImage publishedAt content
   <list>     <chr>       <chr> <chr>       <chr> <chr>      <chr>       <chr>  
 1 <list [2]> "OLIVIA M.… High… "Lancaster… http… https://b… 2024-06-22… "Lanca…
 2 <list [2]> "OLIVIA M.… Satu… "Lancaster… http… https://b… 2024-06-22… "Lanca…
 3 <list [2]> "Juliana K… Heat… "As the he… http… https://n… 2024-06-22… "A maj…
 4 <list [2]> "Ian Livin… Wash… "The fifth… http… https://w… 2024-06-22… "For t…
 5 <list [2]> "Michelle … NYPD… "Two teens… http… https://a… 2024-06-22… "Polic…
 6 <list [2]> "usatoday.… What… "What's th… http… https://b… 2024-06-22… "What'…
 7 <list [2]>  <NA>       Powe…  <NA>       http… <NA>       2024-06-22… "If yo…
 8 <list [2]> "Angela Ba… NYC’… "The curre… http… https://n… 2024-06-22… "The B…
 9 <list [2]> "Brian Bus… Iowa… "Heavy rai… http… https://i… 2024-06-22… "Resid…
10 <list [2]> "Ed White,… Much… "The gover… http… https://d… 2024-06-22… "The g…
# ℹ 90 more rows
…
search2

# A tibble: 100 × 8
# Rowwise: 
   source     author      title description url   urlToImage publishedAt content
   <list>     <chr>       <chr> <chr>       <chr> <chr>      <chr>       <chr>  
 1 <list [2]> "msnbc.com" No c… "Gen. Wesl… http… https://b… 2024-06-22… "Gen. …
 2 <list [2]> "feedfeede… Cali… "Californi… http… <NA>       2024-06-22… "Sign …
 3 <list [2]> "Michelle … Spea… "In Washin… http… https://d… 2024-06-22… "WASHI…
 4 <list [2]> "David McA… 'For… "The autho… http… https://w… 2024-06-22… "The a…
 5 <list [2]> "Agencies"  Thre… "Europe Ne… http… https://s… 2024-06-22… "10 be…
 6 <list [2]> "Lance Rey… Bost… "As visito… http… https://w… 2024-06-22… "Brian…
 7 <list [2]> "ft.com"    Trum… "Ex-presid… http… https://b… 2024-06-22… "Ex-pr…
 8 <list [2]> "Ryan Mori… NASC… "Daniel Su… http… https://s… 2024-06-22… "NASCA…
 9 <list [2]>  <NA>       [Rem… "[Removed]" http… <NA>       1970-01-01… "[Remo…
10 <list [2]> "Avik Roy,… To R… "The U.S. … http… https://i… 2024-06-22… "Under…
# ℹ 90 more rows
